\relax 
\providecommand\hyper@newdestlabel[2]{}
\providecommand\HyperFirstAtBeginDocument{\AtBeginDocument}
\HyperFirstAtBeginDocument{\ifx\hyper@anchor\@undefined
\global\let\oldcontentsline\contentsline
\gdef\contentsline#1#2#3#4{\oldcontentsline{#1}{#2}{#3}}
\global\let\oldnewlabel\newlabel
\gdef\newlabel#1#2{\newlabelxx{#1}#2}
\gdef\newlabelxx#1#2#3#4#5#6{\oldnewlabel{#1}{{#2}{#3}}}
\AtEndDocument{\ifx\hyper@anchor\@undefined
\let\contentsline\oldcontentsline
\let\newlabel\oldnewlabel
\fi}
\fi}
\global\let\hyper@last\relax 
\gdef\HyperFirstAtBeginDocument#1{#1}
\providecommand\HyField@AuxAddToFields[1]{}
\providecommand\HyField@AuxAddToCoFields[2]{}
\providecommand \oddpage@label [2]{}
\@writefile{toc}{\@ifundefined {etoctocstyle}{\let \etoc@startlocaltoc \@gobble \let \etoc@settocdepth \@gobble \let \etoc@depthtag \@gobble \let \etoc@setlocaltop \@gobble }{}}
\@writefile{toc}{\contentsline {chapter}{\numberline {1}Hierarchical Index}{1}{chapter.1}\protected@file@percent }
\@writefile{lof}{\addvspace {10\p@ }}
\@writefile{lot}{\addvspace {10\p@ }}
\@writefile{toc}{\contentsline {section}{\numberline {1.1}Class Hierarchy}{1}{section.1.1}\protected@file@percent }
\@writefile{toc}{\contentsline {chapter}{\numberline {2}Class Index}{3}{chapter.2}\protected@file@percent }
\@writefile{lof}{\addvspace {10\p@ }}
\@writefile{lot}{\addvspace {10\p@ }}
\@writefile{toc}{\contentsline {section}{\numberline {2.1}Class List}{3}{section.2.1}\protected@file@percent }
\@writefile{toc}{\contentsline {chapter}{\numberline {3}File Index}{5}{chapter.3}\protected@file@percent }
\@writefile{lof}{\addvspace {10\p@ }}
\@writefile{lot}{\addvspace {10\p@ }}
\@writefile{toc}{\contentsline {section}{\numberline {3.1}File List}{5}{section.3.1}\protected@file@percent }
\@writefile{toc}{\contentsline {chapter}{\numberline {4}Class Documentation}{7}{chapter.4}\protected@file@percent }
\@writefile{lof}{\addvspace {10\p@ }}
\@writefile{lot}{\addvspace {10\p@ }}
\@writefile{toc}{\contentsline {section}{\numberline {4.1}Bird Class Reference}{7}{section.4.1}\protected@file@percent }
\newlabel{classBird}{{4.1}{7}{Bird Class Reference}{section.4.1}{}}
\@writefile{toc}{\contentsline {subsection}{\numberline {4.1.1}Member Function Documentation}{8}{subsection.4.1.1}\protected@file@percent }
\newlabel{classBird_a7c658db12aaf87e4c8b10ace38dff7b1}{{4.1.1}{8}{Member Function Documentation}{subsection.4.1.1}{}}
\@writefile{toc}{\contentsline {subsubsection}{\numberline {4.1.1.1}walkAround()}{8}{subsubsection.4.1.1.1}\protected@file@percent }
\@writefile{toc}{\contentsline {section}{\numberline {4.2}I\discretionary {\mbox  {\scriptsize  $\hookleftarrow  $}}{}{}Flying Class Reference}{8}{section.4.2}\protected@file@percent }
\newlabel{classIFlying}{{4.2}{8}{I\+Flying Class Reference}{section.4.2}{}}
\@writefile{toc}{\contentsline {subsection}{\numberline {4.2.1}Member Function Documentation}{10}{subsection.4.2.1}\protected@file@percent }
\newlabel{classIFlying_ab70386970c91e896c579f57310ac473b}{{4.2.1}{10}{Member Function Documentation}{subsection.4.2.1}{}}
\@writefile{toc}{\contentsline {subsubsection}{\numberline {4.2.1.1}fly()}{10}{subsubsection.4.2.1.1}\protected@file@percent }
\newlabel{classIFlying_a393622b4600319ec3b0b9835d23e7d1f}{{4.2.1.1}{10}{\texorpdfstring {fly()}{fly()}}{subsubsection.4.2.1.1}{}}
\@writefile{toc}{\contentsline {subsubsection}{\numberline {4.2.1.2}land()}{10}{subsubsection.4.2.1.2}\protected@file@percent }
\newlabel{classIFlying_a1dd53c9eda8f5b69bc1a5d0e93ad86c7}{{4.2.1.2}{10}{\texorpdfstring {land()}{land()}}{subsubsection.4.2.1.2}{}}
\@writefile{toc}{\contentsline {subsubsection}{\numberline {4.2.1.3}walkAround()}{11}{subsubsection.4.2.1.3}\protected@file@percent }
\@writefile{toc}{\contentsline {section}{\numberline {4.3}I\discretionary {\mbox  {\scriptsize  $\hookleftarrow  $}}{}{}Not\discretionary {\mbox  {\scriptsize  $\hookleftarrow  $}}{}{}Flying Class Reference}{11}{section.4.3}\protected@file@percent }
\newlabel{classINotFlying}{{4.3}{11}{I\+Not\+Flying Class Reference}{section.4.3}{}}
\@writefile{toc}{\contentsline {subsection}{\numberline {4.3.1}Member Function Documentation}{12}{subsection.4.3.1}\protected@file@percent }
\newlabel{classINotFlying_a3820b0ff37d73dd4be1a4f11a0917c57}{{4.3.1}{12}{Member Function Documentation}{subsection.4.3.1}{}}
\@writefile{toc}{\contentsline {subsubsection}{\numberline {4.3.1.1}jumpAround()}{12}{subsubsection.4.3.1.1}\protected@file@percent }
\newlabel{classINotFlying_a2d778d3642313d40643cefca676867ba}{{4.3.1.1}{12}{\texorpdfstring {jumpAround()}{jumpAround()}}{subsubsection.4.3.1.1}{}}
\@writefile{toc}{\contentsline {subsubsection}{\numberline {4.3.1.2}walkAround()}{12}{subsubsection.4.3.1.2}\protected@file@percent }
\@writefile{toc}{\contentsline {section}{\numberline {4.4}Penguin Class Reference}{13}{section.4.4}\protected@file@percent }
\newlabel{classPenguin}{{4.4}{13}{Penguin Class Reference}{section.4.4}{}}
\@writefile{toc}{\contentsline {subsection}{\numberline {4.4.1}Member Function Documentation}{14}{subsection.4.4.1}\protected@file@percent }
\newlabel{classPenguin_ae69c166630ee9f11ac34822677789ae5}{{4.4.1}{14}{Member Function Documentation}{subsection.4.4.1}{}}
\@writefile{toc}{\contentsline {subsubsection}{\numberline {4.4.1.1}jumpAround()}{14}{subsubsection.4.4.1.1}\protected@file@percent }
\newlabel{classPenguin_a2ac6b1c2f67655b378a707fe6191533a}{{4.4.1.1}{14}{\texorpdfstring {jumpAround()}{jumpAround()}}{subsubsection.4.4.1.1}{}}
\@writefile{toc}{\contentsline {subsubsection}{\numberline {4.4.1.2}walkAround()}{15}{subsubsection.4.4.1.2}\protected@file@percent }
\@writefile{toc}{\contentsline {section}{\numberline {4.5}Raven Class Reference}{15}{section.4.5}\protected@file@percent }
\newlabel{classRaven}{{4.5}{15}{Raven Class Reference}{section.4.5}{}}
\@writefile{toc}{\contentsline {subsection}{\numberline {4.5.1}Member Function Documentation}{16}{subsection.4.5.1}\protected@file@percent }
\newlabel{classRaven_aed89d2cf0d8fe6f0f3443b03c47eb261}{{4.5.1}{16}{Member Function Documentation}{subsection.4.5.1}{}}
\@writefile{toc}{\contentsline {subsubsection}{\numberline {4.5.1.1}fly()}{16}{subsubsection.4.5.1.1}\protected@file@percent }
\newlabel{classRaven_aa0a40488b530f9d8eb62b990b3f7c6f5}{{4.5.1.1}{16}{\texorpdfstring {fly()}{fly()}}{subsubsection.4.5.1.1}{}}
\@writefile{toc}{\contentsline {subsubsection}{\numberline {4.5.1.2}land()}{17}{subsubsection.4.5.1.2}\protected@file@percent }
\newlabel{classRaven_a0351a896147fc2da8e923ccadc810aba}{{4.5.1.2}{17}{\texorpdfstring {land()}{land()}}{subsubsection.4.5.1.2}{}}
\@writefile{toc}{\contentsline {subsubsection}{\numberline {4.5.1.3}walkAround()}{17}{subsubsection.4.5.1.3}\protected@file@percent }
\@writefile{toc}{\contentsline {chapter}{\numberline {5}File Documentation}{19}{chapter.5}\protected@file@percent }
\@writefile{lof}{\addvspace {10\p@ }}
\@writefile{lot}{\addvspace {10\p@ }}
\@writefile{toc}{\contentsline {section}{\numberline {5.1}Bird.\discretionary {\mbox  {\scriptsize  $\hookleftarrow  $}}{}{}cpp File Reference}{19}{section.5.1}\protected@file@percent }
\newlabel{Bird_8cpp}{{5.1}{19}{Bird.\+cpp File Reference}{section.5.1}{}}
\@writefile{toc}{\contentsline {section}{\numberline {5.2}Bird.\discretionary {\mbox  {\scriptsize  $\hookleftarrow  $}}{}{}h File Reference}{19}{section.5.2}\protected@file@percent }
\newlabel{Bird_8h}{{5.2}{19}{Bird.\+h File Reference}{section.5.2}{}}
\@writefile{toc}{\contentsline {section}{\numberline {5.3}I\discretionary {\mbox  {\scriptsize  $\hookleftarrow  $}}{}{}Flying.\discretionary {\mbox  {\scriptsize  $\hookleftarrow  $}}{}{}cpp File Reference}{20}{section.5.3}\protected@file@percent }
\newlabel{IFlying_8cpp}{{5.3}{20}{I\+Flying.\+cpp File Reference}{section.5.3}{}}
\@writefile{toc}{\contentsline {section}{\numberline {5.4}I\discretionary {\mbox  {\scriptsize  $\hookleftarrow  $}}{}{}Flying.\discretionary {\mbox  {\scriptsize  $\hookleftarrow  $}}{}{}h File Reference}{21}{section.5.4}\protected@file@percent }
\newlabel{IFlying_8h}{{5.4}{21}{I\+Flying.\+h File Reference}{section.5.4}{}}
\@writefile{toc}{\contentsline {section}{\numberline {5.5}I\discretionary {\mbox  {\scriptsize  $\hookleftarrow  $}}{}{}Not\discretionary {\mbox  {\scriptsize  $\hookleftarrow  $}}{}{}Flying.\discretionary {\mbox  {\scriptsize  $\hookleftarrow  $}}{}{}cpp File Reference}{22}{section.5.5}\protected@file@percent }
\newlabel{INotFlying_8cpp}{{5.5}{22}{I\+Not\+Flying.\+cpp File Reference}{section.5.5}{}}
\@writefile{toc}{\contentsline {section}{\numberline {5.6}I\discretionary {\mbox  {\scriptsize  $\hookleftarrow  $}}{}{}Not\discretionary {\mbox  {\scriptsize  $\hookleftarrow  $}}{}{}Flying.\discretionary {\mbox  {\scriptsize  $\hookleftarrow  $}}{}{}h File Reference}{23}{section.5.6}\protected@file@percent }
\newlabel{INotFlying_8h}{{5.6}{23}{I\+Not\+Flying.\+h File Reference}{section.5.6}{}}
\@writefile{toc}{\contentsline {section}{\numberline {5.7}Penguin.\discretionary {\mbox  {\scriptsize  $\hookleftarrow  $}}{}{}cpp File Reference}{24}{section.5.7}\protected@file@percent }
\newlabel{Penguin_8cpp}{{5.7}{24}{Penguin.\+cpp File Reference}{section.5.7}{}}
\@writefile{toc}{\contentsline {section}{\numberline {5.8}Penguin.\discretionary {\mbox  {\scriptsize  $\hookleftarrow  $}}{}{}h File Reference}{24}{section.5.8}\protected@file@percent }
\newlabel{Penguin_8h}{{5.8}{24}{Penguin.\+h File Reference}{section.5.8}{}}
\@writefile{toc}{\contentsline {section}{\numberline {5.9}Raven.\discretionary {\mbox  {\scriptsize  $\hookleftarrow  $}}{}{}cpp File Reference}{25}{section.5.9}\protected@file@percent }
\newlabel{Raven_8cpp}{{5.9}{25}{Raven.\+cpp File Reference}{section.5.9}{}}
\@writefile{toc}{\contentsline {section}{\numberline {5.10}Raven.\discretionary {\mbox  {\scriptsize  $\hookleftarrow  $}}{}{}h File Reference}{26}{section.5.10}\protected@file@percent }
\newlabel{Raven_8h}{{5.10}{26}{Raven.\+h File Reference}{section.5.10}{}}
\@writefile{toc}{\contentsline {chapter}{Index}{29}{section*.36}\protected@file@percent }
