                                                                
                                                                
                                                                
                                                                
                                       @@@@@@@@                 
                                      @@@@@@@@@@@               
           @@@@@@@@                  @@@@@@@@@@@@@              
          @@@@@@@@@@               @@@@@@@@@@@@@@@@             
         @@@@@@@@@@@@             @@@@@@@@@@@@@@@@@             
        @@@@@@@@@@@@@            @@@@@@@@@@@@@@@@@@             
        @@@@@@@@@@@@@@@         @@@@@@@@@@@@@@@@@@@             
       @@@@@@@@@@@@@@@@@       @@@@@@@@@@@@@@@@@@@@@            
      @@@@@@@@@@@@@@@@@@@     @@@@@@@@@@@@@o@@@@@@@@@           
      @@@@@@@@@@@@@@@@@@@@    @@@@@@@@@@@@oo@@@@@@@@@           
      @@@@@@@@@88@@@@@@@@@    @@@@@@@@@@oooo@@@@@@@@@           
      @@@@@@@@@88@@@@@@@@@@   @@@@@@@@@ooooo@@@@@@@@@@          
      @@@@@@@@@88@@@@@@@@@@  @@@@@@@@@ooooooo@@@@@@@@@          
      @@@@@@@@@@88@@@@@@@@@  @@@@@@@@@@oooooo@@@@@@@@@@         
       @@@@@@@@@@@@@@@@@@@@  @@@@@@@@@@@ooooo@@@@@@@@@@         
       @@@@@@@@@@@@@@@@@@@@  @@@@@@@@@@@@@oooo@@@@@@@@@@        
       @@@@@@@@@@@@@@@@@@@@   @@@@@@@@@@@@@@oo@@@@@@@@@@        
        @@@@@@@@@@@@@@@@@@     @@@@@@@@@@@@@@@@@@@@@@@@@        
         @@@@@@@@@@@@@@@@       @@@@@@@@@@@@@@@@@@@@@@@@        
          @@@@@@@@@@@@@@         @@@@@@@@@@@@@@@@@@@@@@@        
           @@@@@@@@@@@@           @@@@@@@@@@@@@@@@@@@@@@        
            @@@@@@@@@@             @@@@@@@@@@@@@@@@@@@@         
              @@@@@@                @@@@@@@@@@@@@@@@@@          
                                      @@@@@@@@@@@@@@@           
                                        @@@@@@@@@@@@            
                                                                
                                                                
                                                                
                                                                
                                                                
                                                                
                                                                
                                                                
                                                                
        @@@@                                                    
       @@@@@@                               @@@@                
      @@@@@@@@                            @@@@@@@               
      @@@@@@@@@                          @@@@@@@@@              
      @@@@@@@@@@                        @@@@@@@@@@              
      @@@@@@@@@@@                      @@@@@@@@@@@              
      @@@@@@@@@@@@@                   @@@@@@@@@@@@              
       @@@@@@@@@@@@@@@             @@@@@@@@@@@@@@@              
        @@@@@@@@@@@@@@@@@@   @@@@@@@@@@@@@@@@@@@@               
         @@@@@@@@@@@@@@@@@@@@@@@@@@@@@@@@@@@@@@@                
          @@@@@@@@@@@@@@@@@@@@@@@@@@@@@@@@@@@@                  
           @@@@@@@@@@@@@@@@@@@@@@@@@@@@@@@@@@                   
            @@@@@@@@@@@@@@@@@@@@@@@@@@@@@@@@                    
              @@@@@@@@@@@@@@@@@@@@@@@@@@@@@                     
                @@@@@@@@@@@@@@@@@@@@@@@@@                       
                  @@@@@@@@@@@@@@@@@@@@                          
                      @@@@@@@@@@@                               
                                                                
                                                                
                                                                
                                                                
                                                                
                                                                
                                                                
                                                                
                                                                
