\relax 
\providecommand\hyper@newdestlabel[2]{}
\providecommand\HyperFirstAtBeginDocument{\AtBeginDocument}
\HyperFirstAtBeginDocument{\ifx\hyper@anchor\@undefined
\global\let\oldcontentsline\contentsline
\gdef\contentsline#1#2#3#4{\oldcontentsline{#1}{#2}{#3}}
\global\let\oldnewlabel\newlabel
\gdef\newlabel#1#2{\newlabelxx{#1}#2}
\gdef\newlabelxx#1#2#3#4#5#6{\oldnewlabel{#1}{{#2}{#3}}}
\AtEndDocument{\ifx\hyper@anchor\@undefined
\let\contentsline\oldcontentsline
\let\newlabel\oldnewlabel
\fi}
\fi}
\global\let\hyper@last\relax 
\gdef\HyperFirstAtBeginDocument#1{#1}
\providecommand\HyField@AuxAddToFields[1]{}
\providecommand\HyField@AuxAddToCoFields[2]{}
\providecommand \oddpage@label [2]{}
\@writefile{toc}{\@ifundefined {etoctocstyle}{\let \etoc@startlocaltoc \@gobble \let \etoc@settocdepth \@gobble \let \etoc@depthtag \@gobble \let \etoc@setlocaltop \@gobble }{}}
\@writefile{toc}{\contentsline {chapter}{\numberline {1}Class Index}{1}{chapter.1}\protected@file@percent }
\@writefile{lof}{\addvspace {10\p@ }}
\@writefile{lot}{\addvspace {10\p@ }}
\@writefile{toc}{\contentsline {section}{\numberline {1.1}Class List}{1}{section.1.1}\protected@file@percent }
\@writefile{toc}{\contentsline {chapter}{\numberline {2}File Index}{3}{chapter.2}\protected@file@percent }
\@writefile{lof}{\addvspace {10\p@ }}
\@writefile{lot}{\addvspace {10\p@ }}
\@writefile{toc}{\contentsline {section}{\numberline {2.1}File List}{3}{section.2.1}\protected@file@percent }
\@writefile{toc}{\contentsline {chapter}{\numberline {3}Class Documentation}{5}{chapter.3}\protected@file@percent }
\@writefile{lof}{\addvspace {10\p@ }}
\@writefile{lot}{\addvspace {10\p@ }}
\@writefile{toc}{\contentsline {section}{\numberline {3.1}L\discretionary {\mbox  {\scriptsize  $\hookleftarrow  $}}{}{}Z\discretionary {\mbox  {\scriptsize  $\hookleftarrow  $}}{}{}W\discretionary {\mbox  {\scriptsize  $\hookleftarrow  $}}{}{}Bin\discretionary {\mbox  {\scriptsize  $\hookleftarrow  $}}{}{}Fa Class Reference}{5}{section.3.1}\protected@file@percent }
\newlabel{classLZWBinFa}{{3.1}{5}{L\+Z\+W\+Bin\+Fa Class Reference}{section.3.1}{}}
\@writefile{toc}{\contentsline {subsection}{\numberline {3.1.1}Constructor \& Destructor Documentation}{6}{subsection.3.1.1}\protected@file@percent }
\newlabel{classLZWBinFa_af976ae881827d7f79152337cb1eed0e4}{{3.1.1}{6}{Constructor \& Destructor Documentation}{subsection.3.1.1}{}}
\@writefile{toc}{\contentsline {subsubsection}{\numberline {3.1.1.1}LZWBinFa()}{6}{subsubsection.3.1.1.1}\protected@file@percent }
\newlabel{classLZWBinFa_af682cdd6a0ac0f8b20ce9493af893c1c}{{3.1.1.1}{6}{\texorpdfstring {LZWBinFa()}{LZWBinFa()}}{subsubsection.3.1.1.1}{}}
\@writefile{toc}{\contentsline {subsubsection}{\numberline {3.1.1.2}$\sim $LZWBinFa()}{6}{subsubsection.3.1.1.2}\protected@file@percent }
\@writefile{toc}{\contentsline {subsection}{\numberline {3.1.2}Member Function Documentation}{6}{subsection.3.1.2}\protected@file@percent }
\newlabel{classLZWBinFa_af95ed91fe3301f17567b5c7a2e68b245}{{3.1.2}{6}{Member Function Documentation}{subsection.3.1.2}{}}
\@writefile{toc}{\contentsline {subsubsection}{\numberline {3.1.2.1}getAtlag()}{7}{subsubsection.3.1.2.1}\protected@file@percent }
\newlabel{classLZWBinFa_a679bc85a8170ce7f4e2053d9d0376e86}{{3.1.2.1}{7}{\texorpdfstring {getAtlag()}{getAtlag()}}{subsubsection.3.1.2.1}{}}
\@writefile{toc}{\contentsline {subsubsection}{\numberline {3.1.2.2}getMelyseg()}{7}{subsubsection.3.1.2.2}\protected@file@percent }
\newlabel{classLZWBinFa_acca68702c8b8ec1198dbf8cdd36628fc}{{3.1.2.2}{7}{\texorpdfstring {getMelyseg()}{getMelyseg()}}{subsubsection.3.1.2.2}{}}
\@writefile{toc}{\contentsline {subsubsection}{\numberline {3.1.2.3}getSzoras()}{7}{subsubsection.3.1.2.3}\protected@file@percent }
\newlabel{classLZWBinFa_a22cc1866a455c3e0b8d2dc9185a27850}{{3.1.2.3}{7}{\texorpdfstring {getSzoras()}{getSzoras()}}{subsubsection.3.1.2.3}{}}
\@writefile{toc}{\contentsline {subsubsection}{\numberline {3.1.2.4}kiir()\hspace  {0.1cm}{\footnotesize  \ttfamily  [1/2]}}{7}{subsubsection.3.1.2.4}\protected@file@percent }
\newlabel{classLZWBinFa_a6f31913dc245006a22949166015be2cf}{{3.1.2.4}{7}{\texorpdfstring {kiir()}{kiir()}\hspace {0.1cm}{\footnotesize \ttfamily [1/2]}}{subsubsection.3.1.2.4}{}}
\@writefile{toc}{\contentsline {subsubsection}{\numberline {3.1.2.5}kiir()\hspace  {0.1cm}{\footnotesize  \ttfamily  [2/2]}}{7}{subsubsection.3.1.2.5}\protected@file@percent }
\newlabel{classLZWBinFa_ac772f20547802367cbd0b4f6f3794911}{{3.1.2.5}{7}{\texorpdfstring {kiir()}{kiir()}\hspace {0.1cm}{\footnotesize \ttfamily [2/2]}}{subsubsection.3.1.2.5}{}}
\@writefile{toc}{\contentsline {subsubsection}{\numberline {3.1.2.6}operator$<$$<$()}{7}{subsubsection.3.1.2.6}\protected@file@percent }
\newlabel{classLZWBinFa_ac140ca6167d0002b2e52abf3a30f81a4}{{3.1.2.6}{7}{\texorpdfstring {operator$<$$<$()}{operator<<()}}{subsubsection.3.1.2.6}{}}
\@writefile{toc}{\contentsline {subsubsection}{\numberline {3.1.2.7}ratlag()}{7}{subsubsection.3.1.2.7}\protected@file@percent }
\newlabel{classLZWBinFa_a93352292b092795b961b2be9aa5d1a13}{{3.1.2.7}{7}{\texorpdfstring {ratlag()}{ratlag()}}{subsubsection.3.1.2.7}{}}
\@writefile{toc}{\contentsline {subsubsection}{\numberline {3.1.2.8}rmelyseg()}{8}{subsubsection.3.1.2.8}\protected@file@percent }
\newlabel{classLZWBinFa_a854c67ab1c6d91b71fae5d4009a1bd07}{{3.1.2.8}{8}{\texorpdfstring {rmelyseg()}{rmelyseg()}}{subsubsection.3.1.2.8}{}}
\@writefile{toc}{\contentsline {subsubsection}{\numberline {3.1.2.9}rszoras()}{8}{subsubsection.3.1.2.9}\protected@file@percent }
\@writefile{toc}{\contentsline {subsection}{\numberline {3.1.3}Friends And Related Function Documentation}{8}{subsection.3.1.3}\protected@file@percent }
\newlabel{classLZWBinFa_ade14b8ed4be19636556fa04a57015f8b}{{3.1.3}{8}{Friends And Related Function Documentation}{subsection.3.1.3}{}}
\@writefile{toc}{\contentsline {subsubsection}{\numberline {3.1.3.1}operator$<$$<$}{8}{subsubsection.3.1.3.1}\protected@file@percent }
\@writefile{toc}{\contentsline {subsection}{\numberline {3.1.4}Member Data Documentation}{8}{subsection.3.1.4}\protected@file@percent }
\newlabel{classLZWBinFa_aac01570cff2f1d9a8deb0f24e6dbe1e0}{{3.1.4}{8}{Member Data Documentation}{subsection.3.1.4}{}}
\@writefile{toc}{\contentsline {subsubsection}{\numberline {3.1.4.1}atlag}{8}{subsubsection.3.1.4.1}\protected@file@percent }
\newlabel{classLZWBinFa_a76ffb6967221c04ffd51bbdef4a885c5}{{3.1.4.1}{8}{\texorpdfstring {atlag}{atlag}}{subsubsection.3.1.4.1}{}}
\@writefile{toc}{\contentsline {subsubsection}{\numberline {3.1.4.2}gyoker}{8}{subsubsection.3.1.4.2}\protected@file@percent }
\newlabel{classLZWBinFa_a78eeb6979dbd1f4f8ff0c9dc3c5f63b0}{{3.1.4.2}{8}{\texorpdfstring {gyoker}{gyoker}}{subsubsection.3.1.4.2}{}}
\@writefile{toc}{\contentsline {subsubsection}{\numberline {3.1.4.3}maxMelyseg}{8}{subsubsection.3.1.4.3}\protected@file@percent }
\newlabel{classLZWBinFa_a152c3f5054267ae4dd2fd878fb02f9a4}{{3.1.4.3}{8}{\texorpdfstring {maxMelyseg}{maxMelyseg}}{subsubsection.3.1.4.3}{}}
\@writefile{toc}{\contentsline {subsubsection}{\numberline {3.1.4.4}szoras}{8}{subsubsection.3.1.4.4}\protected@file@percent }
\@writefile{toc}{\contentsline {chapter}{\numberline {4}File Documentation}{9}{chapter.4}\protected@file@percent }
\@writefile{lof}{\addvspace {10\p@ }}
\@writefile{lot}{\addvspace {10\p@ }}
\@writefile{toc}{\contentsline {section}{\numberline {4.1}log.\discretionary {\mbox  {\scriptsize  $\hookleftarrow  $}}{}{}txt File Reference}{9}{section.4.1}\protected@file@percent }
\newlabel{log_8txt}{{4.1}{9}{log.\+txt File Reference}{section.4.1}{}}
\@writefile{toc}{\contentsline {section}{\numberline {4.2}lzw.\discretionary {\mbox  {\scriptsize  $\hookleftarrow  $}}{}{}cpp File Reference}{9}{section.4.2}\protected@file@percent }
\newlabel{lzw_8cpp}{{4.2}{9}{lzw.\+cpp File Reference}{section.4.2}{}}
\@writefile{toc}{\contentsline {subsection}{\numberline {4.2.1}Function Documentation}{10}{subsection.4.2.1}\protected@file@percent }
\newlabel{lzw_8cpp_a0ddf1224851353fc92bfbff6f499fa97}{{4.2.1}{10}{Function Documentation}{subsection.4.2.1}{}}
\@writefile{toc}{\contentsline {subsubsection}{\numberline {4.2.1.1}main()}{10}{subsubsection.4.2.1.1}\protected@file@percent }
\newlabel{lzw_8cpp_ae8605e2b78cd4a81b6c6b5c30cb7366a}{{4.2.1.1}{10}{\texorpdfstring {main()}{main()}}{subsubsection.4.2.1.1}{}}
\@writefile{toc}{\contentsline {subsubsection}{\numberline {4.2.1.2}usage()}{10}{subsubsection.4.2.1.2}\protected@file@percent }
\@writefile{toc}{\contentsline {chapter}{Index}{11}{section*.9}\protected@file@percent }
